…
## Count of unique instances 


```
## # A tibble: 13,832 × 6
##    description                                 lang  type  cweId cweid instances
##    <chr>                                       <chr> <chr> <chr> <chr>     <int>
##  1 <NA>                                        en    text  <NA>  <NA>     133660
##  2 CWE-79 Improper Neutralization of Input Du… en    CWE   CWE-… <NA>       2844
##  3 Elevation of privilege                      en    text  <NA>  <NA>       1628
##  4 CWE-89 SQL Injection                        en    CWE   CWE-… <NA>       1579
##  5 CWE-352 Cross-Site Request Forgery (CSRF)   en    CWE   CWE-… <NA>       1504
##  6 CWE-79 Cross-site Scripting (XSS)           en    CWE   CWE-… <NA>       1479
##  7 Elevation of Privilege                      en    text  <NA>  <NA>       1333
##  8 Information disclosure                      en    text  <NA>  <NA>       1315
##  9 Remote Code Execution                       en    text  <NA>  <NA>       1296
## 10 Information Disclosure                      en    text  <NA>  <NA>       1277
## # ℹ 13,822 more rows
```
…
containers.cna.problemTypes.descriptions.description


```
## # A tibble: 12,863 × 2
##    description                                                              cves
##    <chr>                                                                   <int>
##  1 <NA>                                                                   133689
##  2 CWE-79 Improper Neutralization of Input During Web Page Generation ('…   3494
##  3 Elevation of Privilege                                                   2447
##  4 Remote Code Execution                                                    2430
##  5 CWE-352 Cross-Site Request Forgery (CSRF)                                2014
##  6 Elevation of privilege                                                   1840
##  7 CWE-89 SQL Injection                                                     1714
##  8 Information Disclosure                                                   1713
##  9 Information disclosure                                                   1542
## 10 CWE-79 Cross-site Scripting (XSS)                                        1479
## # ℹ 12,853 more rows
```


```
## # A tibble: 13,546 × 3
##    type  description                                                        cves
##    <chr> <chr>                                                             <int>
##  1 text  <NA>                                                             133660
##  2 CWE   CWE-79 Improper Neutralization of Input During Web Page Generat…   2845
##  3 CWE   CWE-89 SQL Injection                                               1713
##  4 CWE   CWE-352 Cross-Site Request Forgery (CSRF)                          1694
##  5 text  Elevation of privilege                                             1628
##  6 CWE   CWE-79 Cross-site Scripting (XSS)                                  1479
##  7 text  Elevation of Privilege                                             1333
##  8 text  Information disclosure                                             1315
##  9 text  Remote Code Execution                                              1296
## 10 text  Information Disclosure                                             1277
## # ℹ 13,536 more rows
```
…
